;acc1_1;acc1_2;acc1_3;acc1_4;acc2_1;acc2_2;acc2_3;acc2_4;acc3_1;acc3_2;acc3_3;acc3_4;matrix
0;90,51;93,57;91,37;93,17;97,8;97,7;97,8;97,7;99,2;96,05;99,2;96,3;"[[0,1 0,9] [0,1 0,9]]"
1;93,43;93,49;94,52;94,25;97,8;98,25;97,9;98,15;99,0;94,7;99,0;94,95;"[[0,1 0,9] [0,2 0,8]]"
2;95,66;94,93;94,35;95,46;97,45;97,85;97,6;97,9;99,05;94,7;98,8;95,4;"[[0,1 0,9] [0,3 0,7]]"
3;95,61;94,52;96,16;94,74;98,0;97,85;98,15;97,85;98,9;95,35;98,95;95,75;"[[0,1 0,9] [0,4 0,6]]"
4;96,27;95,44;96,51;95,08;97,05;97,75;97,4;97,7;98,8;94,6;98,8;95,05;"[[0,1 0,9] [0,5 0,5]]"
5;96,06;95,51;96,38;95,56;97,65;97,85;97,6;97,85;98,8;95,6;98,8;96,0;"[[0,1 0,9] [0,6 0,4]]"
6;95,57;95,4;96,13;95,68;96,3;97,65;96,65;97,75;99,0;95,75;98,9;95,9;"[[0,1 0,9] [0,7 0,3]]"
7;95,33;95,7;96,13;95,58;96,8;97,65;97,25;97,6;98,9;97,0;98,95;97,25;"[[0,1 0,9] [0,8 0,2]]"
8;95,69;96,44;96,15;96,29;96,8;98,05;97,5;97,15;98,6;96,8;98,75;97,1;"[[0,1 0,9] [0,9 0,1]]"
9;95,21;95,03;94,97;94,14;97,7;97,65;97,75;97,65;98,75;95,5;98,75;95,55;"[[0,2 0,8] [0,1 0,9]]"
10;95,5;94,86;94,99;94,53;96,45;96,45;96,45;96,45;98,7;93,8;98,5;94,0;"[[0,2 0,8] [0,2 0,8]]"
11;95,07;94,99;95,45;95,18;97,95;97,9;97,95;97,85;98,75;93,7;98,75;94,05;"[[0,2 0,8] [0,3 0,7]]"
12;95,84;95,01;96,5;95,46;96,9;97,35;96,9;97,3;98,95;94,3;98,85;94,65;"[[0,2 0,8] [0,4 0,6]]"
13;96,33;95,28;96,32;95,33;97,3;97,45;97,3;97,5;99,0;94,95;98,95;95,25;"[[0,2 0,8] [0,5 0,5]]"
14;95,3;95,61;95,41;95,62;96,15;97,0;96,35;97,2;98,95;94,95;98,85;95,3;"[[0,2 0,8] [0,6 0,4]]"
15;96,04;96,3;97,21;96,14;97,35;98,0;97,85;97,85;98,7;95,8;98,6;96,2;"[[0,2 0,8] [0,7 0,3]]"
16;95,28;95,85;95,74;95,3;96,1;96,7;96,5;96,55;98,4;96,2;98,4;96,45;"[[0,2 0,8] [0,8 0,2]]"
17;95,73;96,59;96,2;96,67;97,3;97,7;97,4;97,5;98,55;96,85;98,45;96,95;"[[0,2 0,8] [0,9 0,1]]"
18;95,33;94,84;96,16;95,48;97,15;97,05;97,3;97,1;99,15;94,55;99,15;94,95;"[[0,3 0,7] [0,1 0,9]]"
19;96,01;95,16;96,19;95,14;97,55;97,55;97,6;97,6;98,4;94,8;98,65;95,1;"[[0,3 0,7] [0,2 0,8]]"
20;96,15;95,16;95,51;95,18;97,35;97,35;97,35;97,35;98,95;93,65;98,9;94,0;"[[0,3 0,7] [0,3 0,7]]"
21;96,19;95,28;96,13;94,67;97,0;97,15;97,0;97,15;98,5;93,45;98,5;93,65;"[[0,3 0,7] [0,4 0,6]]"
22;95,41;94,62;95,76;94,88;97,2;97,35;97,2;97,2;98,6;94,85;98,6;95,1;"[[0,3 0,7] [0,5 0,5]]"
23;95,84;95,55;95,89;95,51;96,9;97,35;96,9;97,35;99,15;94,8;99,15;94,95;"[[0,3 0,7] [0,6 0,4]]"
24;95,36;95,64;95,99;95,64;96,7;97,05;96,6;97,05;98,75;95,3;98,65;95,55;"[[0,3 0,7] [0,7 0,3]]"
25;96,44;96,39;96,25;96,33;96,9;97,1;96,95;97,0;98,95;96,8;98,95;96,7;"[[0,3 0,7] [0,8 0,2]]"
26;95,87;95,6;96,12;95,58;96,55;97,1;97,0;97,0;98,55;97,5;98,5;97,65;"[[0,3 0,7] [0,9 0,1]]"
27;95,95;95,43;95,88;95,57;97,7;97,25;97,95;97,1;98,75;95,1;98,8;95,4;"[[0,4 0,6] [0,1 0,9]]"
28;95,85;95,5;96,07;95,47;97,2;96,95;97,25;96,9;98,85;94,1;98,85;94,35;"[[0,4 0,6] [0,2 0,8]]"
29;96,17;95,31;95,85;95,03;96,7;97,0;96,7;97,0;98,85;94,9;98,7;95,15;"[[0,4 0,6] [0,3 0,7]]"
30;95,84;95,1;95,38;95,05;97,05;97,0;97,05;97,05;98,8;93,25;98,8;93,7;"[[0,4 0,6] [0,4 0,6]]"
31;95,74;95,29;95,5;95,61;97,05;97,0;97,05;97,0;98,8;94,65;98,9;95,0;"[[0,4 0,6] [0,5 0,5]]"
32;95,58;95,11;95,84;95,61;96,35;97,15;96,55;97,25;99,0;94,75;99,0;95,15;"[[0,4 0,6] [0,6 0,4]]"
33;95,61;95,28;95,62;95,25;96,45;96,45;96,4;96,4;97,95;95,1;97,85;95,25;"[[0,4 0,6] [0,7 0,3]]"
34;95,43;95,54;95,58;95,57;95,85;96,7;96,4;96,65;99,1;96,2;99,0;96,3;"[[0,4 0,6] [0,8 0,2]]"
35;95,03;95,19;95,34;95,35;96,4;96,35;96,35;96,3;98,65;97,4;98,55;97,4;"[[0,4 0,6] [0,9 0,1]]"
36;95,69;94,94;95,26;95,36;96,95;95,6;97,15;95,55;98,3;94,75;98,4;95,0;"[[0,5 0,5] [0,1 0,9]]"
37;95,45;94,32;94,92;94,79;96,5;95,95;96,5;95,9;98,9;94,6;98,8;95,0;"[[0,5 0,5] [0,2 0,8]]"
38;96,13;95,42;95,93;95,2;97,35;97,6;97,5;97,5;98,65;93,9;98,85;94,3;"[[0,5 0,5] [0,3 0,7]]"
39;95,36;94,91;95,92;94,31;96,15;96,25;96,15;96,25;98,45;93,85;98,45;94,1;"[[0,5 0,5] [0,4 0,6]]"
40;95,38;95,46;95,28;95,26;96,5;96,55;96,5;96,55;98,8;94,2;98,8;94,4;"[[0,5 0,5] [0,5 0,5]]"
41;95,5;95,29;95,34;95,72;96,05;96,15;96,1;96,15;98,75;95,1;98,6;95,5;"[[0,5 0,5] [0,6 0,4]]"
42;95,43;95,1;95,59;95,04;96,05;96,4;96,15;96,4;98,45;95,45;98,45;95,6;"[[0,5 0,5] [0,7 0,3]]"
43;95,8;95,67;96,0;96,02;96,85;96,65;96,75;96,7;99,05;96,65;99,05;96,85;"[[0,5 0,5] [0,8 0,2]]"
44;95,35;95,33;95,75;95,24;96,15;96,15;96,15;95,95;99,3;97,3;99,05;97,45;"[[0,5 0,5] [0,9 0,1]]"
45;96,1;95,73;96,18;95,68;97,65;95,6;97,75;95,15;98,75;94,5;98,65;94,55;"[[0,6 0,4] [0,1 0,9]]"
46;96,67;95,81;96,36;96,15;97,4;96,3;97,35;96,1;98,85;94,1;98,85;94,45;"[[0,6 0,4] [0,2 0,8]]"
47;95,89;94,65;95,88;94,88;96,3;96,0;96,25;95,85;99,05;94,2;98,95;94,45;"[[0,6 0,4] [0,3 0,7]]"
48;94,87;94,23;94,71;94,27;95,45;95,5;95,4;95,65;99,1;94,35;99,0;94,65;"[[0,6 0,4] [0,4 0,6]]"
49;94,46;94,55;94,56;94,48;95,75;95,65;95,75;95,5;99,05;94,2;98,9;94,35;"[[0,6 0,4] [0,5 0,5]]"
50;94,63;94,6;95,14;94,4;95,95;95,95;95,95;95,95;98,95;93,7;98,75;93,95;"[[0,6 0,4] [0,6 0,4]]"
51;95,4;94,64;94,95;94,75;95,75;95,75;95,75;95,85;99,4;95,65;99,35;95,8;"[[0,6 0,4] [0,7 0,3]]"
52;95,16;94,88;94,99;94,62;95,15;95,3;95,15;95,4;98,9;95,7;98,65;95,85;"[[0,6 0,4] [0,8 0,2]]"
53;95,09;95,49;95,05;95,78;95,75;95,95;95,65;96,0;99,0;95,6;99,0;95,75;"[[0,6 0,4] [0,9 0,1]]"
54;95,72;95,67;95,87;95,8;96,45;94,7;96,7;94,4;98,95;94,4;98,9;94,45;"[[0,7 0,3] [0,1 0,9]]"
55;95,21;95,06;95,9;95,08;97,2;95,55;97,4;95,25;98,85;93,45;98,65;93,75;"[[0,7 0,3] [0,2 0,8]]"
56;95,17;94,72;95,44;94,72;96,7;95,05;96,8;94,7;98,65;93,9;98,65;94,1;"[[0,7 0,3] [0,3 0,7]]"
57;95,37;94,13;94,91;94,14;96,15;95,35;96,15;95,35;98,7;93,45;98,6;93,6;"[[0,7 0,3] [0,4 0,6]]"
58;95,79;95,52;95,85;95,69;96,8;96,9;96,9;96,9;99,05;95,9;99,05;96,05;"[[0,7 0,3] [0,5 0,5]]"
59;95,31;95,02;95,17;95,24;96,35;96,1;96,35;96,1;98,85;94,85;98,85;95,2;"[[0,7 0,3] [0,6 0,4]]"
60;95,17;95,18;94,66;95,12;96,15;96,15;96,15;96,15;98,65;96,9;98,7;96,95;"[[0,7 0,3] [0,7 0,3]]"
61;95,68;95,48;95,61;95,77;96,0;96,0;96,0;96,0;98,9;96,7;98,8;96,8;"[[0,7 0,3] [0,8 0,2]]"
62;95,74;95,47;95,72;95,46;95,7;95,95;95,65;95,95;99,05;95,3;99,1;95,85;"[[0,7 0,3] [0,9 0,1]]"
63;95,19;94,83;95,65;95,05;95,75;94,45;96,4;94,2;99,35;96,1;99,35;96,3;"[[0,8 0,2] [0,1 0,9]]"
64;95,75;95,37;95,86;95,6;96,15;94,25;96,5;93,6;99,4;95,25;99,25;95,35;"[[0,8 0,2] [0,2 0,8]]"
65;95,27;95,13;95,66;95,23;96,55;95,7;96,65;95,55;98,85;94,4;98,7;94,55;"[[0,8 0,2] [0,3 0,7]]"
66;95,29;94,86;94,96;94,72;95,55;94,6;95,55;94,3;99,75;94,45;99,65;94,75;"[[0,8 0,2] [0,4 0,6]]"
67;95,26;95,16;95,56;94,87;96,05;95,8;96,1;95,65;99,55;95,4;99,5;95,7;"[[0,8 0,2] [0,5 0,5]]"
68;95,89;95,27;95,67;95,45;96,0;95,75;96,05;95,7;99,1;95,2;99,05;95,4;"[[0,8 0,2] [0,6 0,4]]"
69;95,52;94,89;95,62;95,06;95,65;95,7;95,65;95,7;98,5;96,6;98,45;96,7;"[[0,8 0,2] [0,7 0,3]]"
70;95,01;95,2;94,3;94,65;95,65;95,6;95,6;95,55;99,35;94,15;99,35;94,75;"[[0,8 0,2] [0,8 0,2]]"
71;94,6;95,01;94,21;95,1;95,55;95,65;95,55;95,65;99,25;92,75;99,25;93,15;"[[0,8 0,2] [0,9 0,1]]"
72;94,94;95,12;95,11;95,36;96,55;94,8;97,0;94,45;99,0;94,85;99,0;95,1;"[[0,9 0,1] [0,1 0,9]]"
73;94,73;94,77;95,25;94,56;95,7;93,4;95,8;93,05;98,45;94,1;98,5;94,35;"[[0,9 0,1] [0,2 0,8]]"
74;96,17;95,78;96,02;95,91;97,0;95,0;97,2;94,55;97,9;95,2;97,75;95,75;"[[0,9 0,1] [0,3 0,7]]"
75;95,92;95,92;95,75;95,93;97,0;95,45;96,95;95,25;99,1;93,65;99,15;93,85;"[[0,9 0,1] [0,4 0,6]]"
76;94,91;94,72;95,27;94,87;96,15;95,25;96,4;95,1;99,55;95,3;99,4;95,55;"[[0,9 0,1] [0,5 0,5]]"
77;95,07;94,58;94,87;95,06;94,7;94,85;94,85;94,95;99,0;95,9;99,1;95,9;"[[0,9 0,1] [0,6 0,4]]"
78;92,54;93,18;94,82;94,47;95,7;95,75;95,75;95,75;99,4;98,2;99,35;98,1;"[[0,9 0,1] [0,7 0,3]]"
79;92,43;95,27;93,4;94,21;95,0;95,1;95,0;95,05;98,85;91,9;98,8;92,35;"[[0,9 0,1] [0,8 0,2]]"
80;91,75;93,47;92,51;94,86;96,65;96,45;96,65;96,45;99,3;94,65;99,3;94,65;"[[0,9 0,1] [0,9 0,1]]"
